{
    "name": "FoundryVTT-dnd5extra-it",
    "title": "Non-SRD Content Italian Translation",
    "description": "Add Italian language to Non-SRD compendiums for FoundryVTT.",
    "version": "b0.0.1",
    "minimumCoreVersion" : "0.7.6",
    "compatibleCoreVersion":"0.7.9",
  
    "dependencies": [{
      "name": "babele",
      "manifest": "https://gitlab.com/riccisi/foundryvtt-babele/raw/master/module/module.json",
      "version": "1.19"
    }],
  
    "author": "Haloghen",
    "esmodules": ["babele-register.js"],
    "scripts": [],
    "packs": [],
    
    "url": "https://gitlab.com/Haloghen/DnD5e-Ita-Extra",
    "manifest": "https://gitlab.com/Haloghen/DnD5e-Ita-Extra/raw/latest/it-IT/module.json",
    "download": "https://gitlab.com/Haloghen/DnD5e-Ita-Extra/-/jobs/artifacts/latest/raw/dnd5extra-it-IT.zip?job=build"
  }
  
